<svg width="30" height="30" viewBox="0 0 30 30" fill="none" xmlns="http://www.w3.org/2000/svg">
<path fill-rule="evenodd" clip-rule="evenodd" d="M15 5.5C9.63999 5.5 5.2639 8.65182 1.84883 14.6279C1.71706 14.8585 1.71706 15.1415 1.84883 15.3721C5.2639 21.3482 9.63999 24.5 15 24.5C20.36 24.5 24.7361 21.3482 28.1512 15.3721C28.2829 15.1415 28.2829 14.8585 28.1512 14.6279C24.7361 8.65182 20.36 5.5 15 5.5ZM15 11.75C14.138 11.75 13.3114 12.0924 12.7019 12.7019C12.0924 13.3114 11.75 14.138 11.75 15C11.75 15.862 12.0924 16.6886 12.7019 17.2981C13.3114 17.9076 14.138 18.25 15 18.25C15.862 18.25 16.6886 17.9076 17.2981 17.2981C17.9076 16.6886 18.25 15.862 18.25 15C18.25 14.138 17.9076 13.3114 17.2981 12.7019C16.6886 12.0924 15.862 11.75 15 11.75ZM13.7626 13.7626C14.0908 13.4344 14.5359 13.25 15 13.25C15.4641 13.25 15.9092 13.4344 16.2374 13.7626C16.5656 14.0908 16.75 14.5359 16.75 15C16.75 15.4641 16.5656 15.9092 16.2374 16.2374C15.9092 16.5656 15.4641 16.75 15 16.75C14.5359 16.75 14.0908 16.5656 13.7626 16.2374C13.4344 15.9092 13.25 15.4641 13.25 15C13.25 14.5359 13.4344 14.0908 13.7626 13.7626Z" fill="url(#paint0_linear_1973_1594)"/>
<defs>
<linearGradient id="paint0_linear_1973_1594" x1="28.25" y1="30.1076" x2="10.057" y2="-7.96906" gradientUnits="userSpaceOnUse">
<stop stop-color="#1DC387"/>
<stop offset="1" stop-color="#91E53E"/>
</linearGradient>
</defs>
</svg>
