<svg width="18" height="18" viewBox="0 0 18 18" fill="none" xmlns="http://www.w3.org/2000/svg">
<g clip-path="url(#clip0_1973_1604)">
<path d="M15.0233 11.9628L18.2355 15.1743L17.1743 16.2355L13.9628 13.0233C12.7678 13.9812 11.2815 14.5022 9.75 14.5C6.024 14.5 3 11.476 3 7.75C3 4.024 6.024 1 9.75 1C13.476 1 16.5 4.024 16.5 7.75C16.5022 9.2815 15.9812 10.7678 15.0233 11.9628ZM13.5187 11.4062C14.4706 10.4274 15.0022 9.11532 15 7.75C15 4.849 12.6503 2.5 9.75 2.5C6.849 2.5 4.5 4.849 4.5 7.75C4.5 10.6503 6.849 13 9.75 13C11.1153 13.0022 12.4274 12.4706 13.4062 11.5187L13.5187 11.4062V11.4062Z" fill="#828282"/>
</g>
<defs>
<clipPath id="clip0_1973_1604">
<rect width="18" height="18" fill="white"/>
</clipPath>
</defs>
</svg>
