<svg width="20" height="20" viewBox="0 0 20 20" fill="none" xmlns="http://www.w3.org/2000/svg">
<path fill-rule="evenodd" clip-rule="evenodd" d="M5.33594 17.5013C5.33594 16.7649 5.93289 16.168 6.66927 16.168C7.40565 16.168 8.0026 16.7649 8.0026 17.5013C8.0026 18.2377 7.40565 18.8346 6.66927 18.8346C5.93289 18.8346 5.33594 18.2377 5.33594 17.5013Z" fill="url(#paint0_linear_2022_1785)"/>
<path d="M14.5 17.5013C14.5 16.7649 15.097 16.168 15.8333 16.168C16.5697 16.168 17.1667 16.7649 17.1667 17.5013C17.1667 18.2377 16.5697 18.8346 15.8333 18.8346C15.097 18.8346 14.5 18.2377 14.5 17.5013Z" fill="url(#paint1_linear_2022_1785)"/>
<path d="M1.21094 1.70703C1.21094 1.43089 1.4348 1.20703 1.71094 1.20703H3.3776C3.61339 1.20703 3.81714 1.37176 3.86652 1.60232L4.67424 5.3737H18.4109C18.5626 5.3737 18.706 5.44252 18.8009 5.56081C18.8958 5.67909 18.9319 5.83405 18.899 5.98209L17.5242 12.1729C17.4182 12.6543 17.151 13.0855 16.767 13.3947C16.3829 13.7039 15.9049 13.8729 15.4117 13.8737H7.26616C6.76437 13.8835 6.27466 13.7188 5.88075 13.4076C5.48529 13.0952 5.2111 12.6547 5.10539 12.1619L3.78704 6.00628C3.78211 5.9883 3.77815 5.96991 3.77524 5.95118L2.97335 2.20703H1.71094C1.4348 2.20703 1.21094 1.98317 1.21094 1.70703Z" fill="url(#paint2_linear_2022_1785)"/>
<defs>
<linearGradient id="paint0_linear_2022_1785" x1="8.0026" y1="19.6217" x2="4.97347" y2="15.0762" gradientUnits="userSpaceOnUse">
<stop stop-color="#1DC387"/>
<stop offset="1" stop-color="#91E53E"/>
</linearGradient>
<linearGradient id="paint1_linear_2022_1785" x1="17.1667" y1="19.6217" x2="14.1375" y2="15.0762" gradientUnits="userSpaceOnUse">
<stop stop-color="#1DC387"/>
<stop offset="1" stop-color="#91E53E"/>
</linearGradient>
<linearGradient id="paint2_linear_2022_1785" x1="18.9109" y1="17.6127" x2="6.79598" y2="-7.7901" gradientUnits="userSpaceOnUse">
<stop stop-color="#1DC387"/>
<stop offset="1" stop-color="#91E53E"/>
</linearGradient>
</defs>
</svg>
