<svg width="40" height="40" viewBox="0 0 40 40" fill="none" xmlns="http://www.w3.org/2000/svg">
<rect x="1" y="1" width="38" height="38" rx="13" stroke="white" stroke-width="2"/>
<path d="M27.9799 15.7107C28.0966 15.3232 27.9799 15.0391 27.4282 15.0391H25.6007C25.1357 15.0391 24.9232 15.2849 24.8066 15.5549C24.8066 15.5549 23.8774 17.8207 22.5607 19.2899C22.1357 19.7174 21.9416 19.8524 21.7099 19.8524C21.5941 19.8524 21.4257 19.7174 21.4257 19.3299V15.7107C21.4257 15.2457 21.2916 15.0391 20.9041 15.0391H18.0324C17.7424 15.0391 17.5674 15.2541 17.5674 15.4591C17.5674 15.8991 18.2257 16.0007 18.2932 17.2407V19.9307C18.2932 20.5199 18.1874 20.6274 17.9541 20.6274C17.3349 20.6274 15.8282 18.3532 14.9341 15.7499C14.7599 15.2441 14.5841 15.0399 14.1174 15.0399H12.2907C11.7682 15.0399 11.6641 15.2857 11.6641 15.5557C11.6641 16.0407 12.2832 18.4407 14.5482 21.6149C16.0582 23.7824 18.1841 24.9574 20.1207 24.9574C21.2816 24.9574 21.4249 24.6966 21.4249 24.2466V22.6082C21.4249 22.0866 21.5357 21.9816 21.9032 21.9816C22.1732 21.9816 22.6382 22.1182 23.7224 23.1624C24.9607 24.4007 25.1657 24.9566 25.8616 24.9566H27.6882C28.2099 24.9566 28.4707 24.6957 28.3207 24.1807C28.1566 23.6682 27.5649 22.9224 26.7799 22.0399C26.3532 21.5366 25.7157 20.9949 25.5216 20.7241C25.2507 20.3749 25.3291 20.2207 25.5216 19.9107C25.5224 19.9116 27.7482 16.7766 27.9799 15.7107Z" fill="white"/>
</svg>
